host0: 839
host1: 420
host2: 362
host3: 455
host4: 61
device: 0
read: 10818
write: 4621
ParticleCalc: 15524
host0: 242
host1: 231
host2: 241
host3: 246
host4: 219
device: 234
read: 1327
write: 3827
ParticleCalcMsg: 5285
host0: 179
host1: 175
host2: 178
host3: 176
host4: 358
device: 314
read: 1322
write: 4147
ParticleCalcMsg: 5590
host0: 434
host1: 187
host2: 235
host3: 168
host4: 168
device: 168
read: 1301
write: 4162
ParticleCalcMsg: 5596
time(   5)=0.05000
host0: 196
host1: 196
host2: 406
host3: 194
host4: 187
device: 193
read: 1286
write: 4063
ParticleCalcMsg: 5482
host0: 202
host1: 203
host2: 191
host3: 271
host4: 181
device: 311
read: 1314
write: 4111
ParticleCalcMsg: 5548
host0: 245
host1: 163
host2: 228
host3: 408
host4: 164
device: 159
read: 1340
write: 4340
ParticleCalcMsg: 5809
host0: 198
host1: 184
host2: 202
host3: 187
host4: 189
device: 318
read: 1322
write: 4292
ParticleCalcMsg: 5739
host0: 152
host1: 167
host2: 146
host3: 150
host4: 135
device: 362
read: 1355
write: 4247
ParticleCalcMsg: 5701
time(  10)=0.10000
host0: 391
host1: 120
host2: 406
host3: 119
host4: 117
device: 388
read: 1464
write: 4818
ParticleCalcMsg: 6397
host0: 196
host1: 198
host2: 261
host3: 338
host4: 194
device: 196
read: 1335
write: 4279
ParticleCalcMsg: 5739
host0: 183
host1: 288
host2: 183
host3: 170
host4: 352
device: 180
read: 1301
write: 4332
ParticleCalcMsg: 5759
host0: 227
host1: 388
host2: 191
host3: 194
host4: 190
device: 194
read: 1317
write: 4198
ParticleCalcMsg: 5646
host0: 193
host1: 197
host2: 223
host3: 399
host4: 199
device: 186
read: 1348
write: 4348
ParticleCalcMsg: 5829
time(  15)=0.15000
host0: 200
host1: 201
host2: 194
host3: 412
host4: 192
device: 188
read: 1340
write: 4270
ParticleCalcMsg: 5739
host0: 195
host1: 351
host2: 187
host3: 247
host4: 177
device: 184
read: 1321
write: 4231
ParticleCalcMsg: 5677
host0: 196
host1: 412
host2: 192
host3: 190
host4: 183
device: 181
read: 1334
write: 4277
ParticleCalcMsg: 5735
host0: 204
host1: 237
host2: 195
host3: 193
host4: 189
device: 333
read: 1348
write: 4426
ParticleCalcMsg: 5896
host0: 149
host1: 286
host2: 211
host3: 386
host4: 151
device: 144
read: 1335
write: 4509
ParticleCalcMsg: 5968
time(  20)=0.20000
host0: 255
host1: 195
host2: 319
host3: 190
host4: 193
device: 189
read: 1312
write: 4190
ParticleCalcMsg: 5629
host0: 196
host1: 183
host2: 275
host3: 191
host4: 182
device: 315
read: 1311
write: 4204
ParticleCalcMsg: 5637
host0: 175
host1: 211
host2: 159
host3: 169
host4: 256
device: 387
read: 1364
write: 4263
ParticleCalcMsg: 5744
host0: 155
host1: 141
host2: 141
host3: 137
host4: 135
device: 476
read: 1333
write: 4212
ParticleCalcMsg: 5652
host0: 133
host1: 587
host2: 127
host3: 122
host4: 112
device: 468
read: 1488
write: 4769
ParticleCalcMsg: 6362
time(  25)=0.25000
host0: 193
host1: 186
host2: 190
host3: 235
host4: 179
device: 523
read: 1366
write: 4133
ParticleCalcMsg: 5610
host0: 296
host1: 381
host2: 201
host3: 146
host4: 152
device: 147
read: 1360
write: 4651
ParticleCalcMsg: 6135
host0: 207
host1: 210
host2: 211
host3: 196
host4: 197
device: 285
read: 1301
write: 4093
ParticleCalcMsg: 5515
host0: 178
host1: 156
host2: 157
host3: 391
host4: 155
device: 374
read: 1371
write: 4393
ParticleCalcMsg: 5888
host0: 166
host1: 164
host2: 162
host3: 284
host4: 392
device: 148
read: 1339
write: 4468
ParticleCalcMsg: 5924
time(  30)=0.30000
host0: 197
host1: 178
host2: 183
host3: 184
host4: 181
device: 308
read: 1300
write: 4286
ParticleCalcMsg: 5703
host0: 278
host1: 151
host2: 148
host3: 143
host4: 247
device: 375
read: 1385
write: 4505
ParticleCalcMsg: 6001
host0: 288
host1: 390
host2: 206
host3: 156
host4: 158
device: 151
read: 1360
write: 6843
ParticleCalcMsg: 8326
host0: 193
host1: 188
host2: 194
host3: 379
host4: 185
device: 180
read: 1348
write: 9054
ParticleCalcMsg: 10528
host0: 204
host1: 403
host2: 213
host3: 181
host4: 179
device: 178
read: 1537
write: 16704
ParticleCalcMsg: 18371
time(  35)=0.35000
host0: 238
host1: 189
host2: 194
host3: 193
host4: 186
device: 331
read: 1352
write: 8821
ParticleCalcMsg: 10288
host0: 162
host1: 160
host2: 153
host3: 147
host4: 340
device: 406
read: 1530
write: 11856
ParticleCalcMsg: 13505
host0: 159
host1: 154
host2: 330
host3: 378
host4: 148
device: 145
read: 1542
write: 11741
ParticleCalcMsg: 13407
host0: 196
host1: 195
host2: 248
host3: 319
host4: 188
device: 281
read: 1324
write: 11848
ParticleCalcMsg: 13302
host0: 197
host1: 177
host2: 188
host3: 183
host4: 176
device: 383
read: 1575
write: 13856
ParticleCalcMsg: 15542
time(  40)=0.40000
host0: 155
host1: 141
host2: 501
host3: 148
host4: 304
device: 134
read: 1442
write: 14155
ParticleCalcMsg: 15727
host0: 244
host1: 229
host2: 310
host3: 230
host4: 216
device: 220
read: 1435
write: 15065
ParticleCalcMsg: 16637
host0: 249
host1: 359
host2: 181
host3: 183
host4: 176
device: 174
read: 1370
write: 11443
ParticleCalcMsg: 12955
host0: 377
host1: 244
host2: 181
host3: 178
host4: 177
device: 182
read: 1352
write: 10131
ParticleCalcMsg: 11620
host0: 285
host1: 188
host2: 190
host3: 352
host4: 183
device: 303
read: 1385
write: 11840
ParticleCalcMsg: 13351
time(  45)=0.45000
host0: 192
host1: 181
host2: 186
host3: 176
host4: 181
device: 401
read: 1369
write: 11515
ParticleCalcMsg: 13000
host0: 156
host1: 239
host2: 155
host3: 148
host4: 136
device: 341
read: 1438
write: 10052
ParticleCalcMsg: 11598
host0: 143
host1: 547
host2: 139
host3: 125
host4: 131
device: 408
read: 1410
write: 13782
ParticleCalcMsg: 15311
host0: 336
host1: 188
host2: 289
host3: 204
host4: 175
device: 177
read: 1365
write: 11279
ParticleCalcMsg: 12777
host0: 212
host1: 186
host2: 192
host3: 193
host4: 210
device: 311
read: 1505
write: 8604
ParticleCalcMsg: 10230
time(  50)=0.50000
host0: 266
host1: 207
host2: 430
host3: 145
host4: 144
device: 141
read: 1365
write: 12375
ParticleCalcMsg: 13857
host0: 329
host1: 184
host2: 255
host3: 189
host4: 183
device: 183
read: 1644
write: 11773
ParticleCalcMsg: 13549
host0: 190
host1: 183
host2: 181
host3: 181
host4: 180
device: 309
read: 1522
write: 10732
ParticleCalcMsg: 12383
host0: 143
host1: 554
host2: 147
host3: 132
host4: 208
device: 130
read: 1493
write: 10322
ParticleCalcMsg: 11947
host0: 212
host1: 339
host2: 188
host3: 200
host4: 197
device: 193
read: 1380
write: 11356
ParticleCalcMsg: 12874
time(  55)=0.55000
host0: 383
host1: 241
host2: 187
host3: 182
host4: 170
device: 189
read: 1414
write: 13806
ParticleCalcMsg: 15361
host0: 313
host1: 270
host2: 180
host3: 182
host4: 184
device: 184
read: 1525
write: 17077
ParticleCalcMsg: 18735
host0: 199
host1: 193
host2: 266
host3: 180
host4: 174
device: 303
read: 1407
write: 10644
ParticleCalcMsg: 12178
host0: 359
host1: 149
host2: 159
host3: 340
host4: 153
device: 148
read: 1385
write: 13239
ParticleCalcMsg: 14763
host0: 202
host1: 183
host2: 188
host3: 180
host4: 180
device: 299
read: 1477
write: 13866
ParticleCalcMsg: 15464
time(  60)=0.60000
host0: 165
host1: 239
host2: 154
host3: 256
host4: 424
device: 141
read: 1640
write: 13139
ParticleCalcMsg: 14913
host0: 204
host1: 191
host2: 252
host3: 316
host4: 183
device: 188
read: 1515
write: 11124
ParticleCalcMsg: 12774
host0: 302
host1: 295
host2: 181
host3: 185
host4: 172
device: 311
read: 1307
write: 9838
ParticleCalcMsg: 11286
host0: 254
host1: 185
host2: 191
host3: 259
host4: 299
device: 173
read: 1333
write: 11920
ParticleCalcMsg: 13381
host0: 194
host1: 182
host2: 181
host3: 438
host4: 176
device: 183
read: 1323
write: 13402
ParticleCalcMsg: 14864
time(  65)=0.65000
host0: 190
host1: 176
host2: 437
host3: 180
host4: 175
device: 191
read: 1333
write: 12726
ParticleCalcMsg: 14183
host0: 229
host1: 254
host2: 227
host3: 215
host4: 192
device: 286
read: 1396
write: 11636
ParticleCalcMsg: 13161
host0: 178
host1: 406
host2: 174
host3: 176
host4: 167
device: 324
read: 1480
write: 11536
ParticleCalcMsg: 13142
host0: 335
host1: 190
host2: 182
host3: 188
host4: 180
device: 366
read: 1548
write: 12244
ParticleCalcMsg: 13917
host0: 174
host1: 158
host2: 385
host3: 162
host4: 265
device: 167
read: 1338
write: 12464
ParticleCalcMsg: 13930
time(  70)=0.70000
host0: 295
host1: 186
host2: 316
host3: 192
host4: 181
device: 182
read: 1319
write: 16442
ParticleCalcMsg: 17901
host0: 191
host1: 235
host2: 365
host3: 173
host4: 174
device: 170
read: 1418
write: 16485
ParticleCalcMsg: 18037
host0: 198
host1: 376
host2: 196
host3: 190
host4: 183
device: 277
read: 1289
write: 7817
ParticleCalcMsg: 9241
host0: 227
host1: 236
host2: 230
host3: 339
host4: 11645
device: 209
read: 6564
write: 6340
ParticleCalcMsg: 19592
host0: 362
host1: 189
host2: 193
host3: 340
host4: 180
device: 184
read: 1458
write: 13414
ParticleCalcMsg: 15008
time(  75)=0.75000
host0: 287
host1: 184
host2: 182
host3: 338
host4: 177
device: 301
read: 2554
write: 14009
ParticleCalcMsg: 16696
host0: 377
host1: 196
host2: 307
host3: 186
host4: 171
device: 182
read: 2046
write: 12283
ParticleCalcMsg: 14466
host0: 49465
host1: 51175
host2: 2140
host3: 6232
host4: 4575
device: 52203
read: 64764
write: 56889
ParticleCalcMsg: 121789
host0: 196
host1: 490
host2: 480
host3: 3550
host4: 478
device: 506
read: 3538
write: 11022
ParticleCalcMsg: 14689
host0: 2349
host1: 1104
host2: 1095
host3: 1105
host4: 204
device: 1096
read: 1377
write: 8655
ParticleCalcMsg: 10164
time(  80)=0.80000
host0: 3043
host1: 2412
host2: 515
host3: 1712
host4: 1414
device: 2343
read: 3092
write: 6409
ParticleCalcMsg: 9638
host0: 222
host1: 208
host2: 334
host3: 193
host4: 192
device: 376
read: 1516
write: 5324
ParticleCalcMsg: 6972
host0: 177
host1: 433
host2: 178
host3: 175
host4: 164
device: 395
read: 1442
write: 6016
ParticleCalcMsg: 7572
host0: 385
host1: 176
host2: 334
host3: 173
host4: 172
device: 174
read: 1433
write: 6061
ParticleCalcMsg: 7621
host0: 214
host1: 205
host2: 476
host3: 206
host4: 192
device: 188
read: 1425
write: 5550
ParticleCalcMsg: 7106
time(  85)=0.85000
host0: 195
host1: 189
host2: 404
host3: 190
host4: 275
device: 173
read: 1420
write: 5470
ParticleCalcMsg: 7032
host0: 204
host1: 191
host2: 242
host3: 229
host4: 398
device: 228
read: 1440
write: 8359
ParticleCalcMsg: 9940
host0: 293
host1: 188
host2: 317
host3: 189
host4: 181
device: 304
read: 1464
write: 10251
ParticleCalcMsg: 11842
host0: 287
host1: 327
host2: 219
host3: 577
host4: 190
device: 180
read: 1447
write: 6766
ParticleCalcMsg: 8349
host0: 194
host1: 177
host2: 176
host3: 187
host4: 348
device: 299
read: 1872
write: 10083
ParticleCalcMsg: 12085
time(  90)=0.90000
host0: 183
host1: 511
host2: 686
host3: 172
host4: 175
device: 229
read: 1678
write: 17507
ParticleCalcMsg: 19320
host0: 197
host1: 199
host2: 191
host3: 385
host4: 193
device: 195
read: 1357
write: 15651
ParticleCalcMsg: 17148
host0: 208
host1: 206
host2: 208
host3: 198
host4: 200
device: 280
read: 1706
write: 13410
ParticleCalcMsg: 15243
host0: 182
host1: 160
host2: 173
host3: 398
host4: 155
device: 391
read: 1458
write: 9191
ParticleCalcMsg: 10773
host0: 657
host1: 162
host2: 165
host3: 271
host4: 163
device: 166
read: 1590
write: 8018
ParticleCalcMsg: 9731
time(  95)=0.95000
host0: 579
host1: 197
host2: 203
host3: 192
host4: 186
device: 189
read: 1734
write: 8433
ParticleCalcMsg: 10301
host0: 202
host1: 188
host2: 264
host3: 193
host4: 185
device: 369
read: 1366
write: 6498
ParticleCalcMsg: 7993
host0: 406
host1: 332
host2: 148
host3: 152
host4: 147
device: 199
read: 1404
write: 10249
ParticleCalcMsg: 11783
host0: 207
host1: 211
host2: 204
host3: 318
host4: 280
device: 327
read: 1963
write: 21922
ParticleCalcMsg: 24020
host0: 225
host1: 177
host2: 265
host3: 348
host4: 167
device: 172
read: 1390
write: 11323
ParticleCalcMsg: 12848
host0: 78264
host1: 77704
host2: 26506
host3: 34553
host4: 36787
device: 79830
read: 224046
write: 943320
total: 1186496
OK
